INDEX VERSION 1.127+/Users/mick/Eclipse/Java8starter/.metadata/.plugins/org.eclipse.jdt.core
4174582480.index
207593031.index
1588774938.index
2408872522.index
1061590645.index
81527740.index
3927570467.index
2068525553.index
1737430786.index
2647486796.index
380260352.index
1732991101.index
1473005170.index
2710333651.index
433484670.index
1457083024.index
136835080.index
2846814051.index
2162255183.index
3157095478.index
