<?xml version="1.0" encoding="UTF-8"?>
<session version="1.0">
<refactoring comment="Rename local variable &apos;optional&apos; in &apos;com.example.java8.Main.main(...)&apos; to &apos;line&apos;&#x0A;- Original project: &apos;SearchFile&apos;&#x0A;- Original element: &apos;com.example.java8.Main.main(String[]).optional&apos;&#x0A;- Renamed element: &apos;optional&apos;&#x0A;- Update references to refactored element" description="Rename local variable &apos;optional&apos;" id="org.eclipse.jdt.ui.rename.local.variable" input="/src&lt;com.example.java8{Main.java[Main~main~\[QString;@optional!437!518!454!461!QOptional\&lt;QString;&gt;;!0!false" name="line" references="true" stamp="1425834795905" version="1.0"/>
</session>